…
    ## date created (size, mb): 2022-09-23 23:17:58 (1.703)

    ## file min/max dates: 1965-01-01 / 2020-03-31

    ## using cached file: C:\Users\Yuchen\AppData\Local/Cache/R/noaa_ghcnd/USS0023B17S.dly

    ## date created (size, mb): 2022-09-23 23:18:01 (0.952)

    ## file min/max dates: 1999-09-01 / 2022-09-30

``` r
weather_df
```

    ## # A tibble: 1,095 × 7
    ##    name           id          date        prcp  tmax  tmin month     
    ##    <chr>          <chr>       <date>     <dbl> <dbl> <dbl> <date>    
    ##  1 CentralPark_NY USW00094728 2017-01-01     0   8.9   4.4 2017-01-01
    ##  2 CentralPark_NY USW00094728 2017-01-02    53   5     2.8 2017-01-01
    ##  3 CentralPark_NY USW00094728 2017-01-03   147   6.1   3.9 2017-01-01
    ##  4 CentralPark_NY USW00094728 2017-01-04     0  11.1   1.1 2017-01-01
    ##  5 CentralPark_NY USW00094728 2017-01-05     0   1.1  -2.7 2017-01-01
    ##  6 CentralPark_NY USW00094728 2017-01-06    13   0.6  -3.8 2017-01-01
    ##  7 CentralPark_NY USW00094728 2017-01-07    81  -3.2  -6.6 2017-01-01
    ##  8 CentralPark_NY USW00094728 2017-01-08     0  -3.8  -8.8 2017-01-01
    ##  9 CentralPark_NY USW00094728 2017-01-09     0  -4.9  -9.9 2017-01-01
    ## 10 CentralPark_NY USW00094728 2017-01-10     0   7.8  -6   2017-01-01
    ## # … with 1,085 more rows

## ‘group_by’

``` r
weather_df %>%
  group_by(name)
```

    ## # A tibble: 1,095 × 7
    ## # Groups:   name [3]
    ##    name           id          date        prcp  tmax  tmin month     
    ##    <chr>          <chr>       <date>     <dbl> <dbl> <dbl> <date>    
    ##  1 CentralPark_NY USW00094728 2017-01-01     0   8.9   4.4 2017-01-01
    ##  2 CentralPark_NY USW00094728 2017-01-02    53   5     2.8 2017-01-01
    ##  3 CentralPark_NY USW00094728 2017-01-03   147   6.1   3.9 2017-01-01
    ##  4 CentralPark_NY USW00094728 2017-01-04     0  11.1   1.1 2017-01-01
    ##  5 CentralPark_NY USW00094728 2017-01-05     0   1.1  -2.7 2017-01-01
    ##  6 CentralPark_NY USW00094728 2017-01-06    13   0.6  -3.8 2017-01-01
    ##  7 CentralPark_NY USW00094728 2017-01-07    81  -3.2  -6.6 2017-01-01
    ##  8 CentralPark_NY USW00094728 2017-01-08     0  -3.8  -8.8 2017-01-01
    ##  9 CentralPark_NY USW00094728 2017-01-09     0  -4.9  -9.9 2017-01-01
    ## 10 CentralPark_NY USW00094728 2017-01-10     0   7.8  -6   2017-01-01
    ## # … with 1,085 more rows

``` r
weather_df %>%
  group_by(name, month)
```

    ## # A tibble: 1,095 × 7
    ## # Groups:   name, month [36]
    ##    name           id          date        prcp  tmax  tmin month     
    ##    <chr>          <chr>       <date>     <dbl> <dbl> <dbl> <date>    
    ##  1 CentralPark_NY USW00094728 2017-01-01     0   8.9   4.4 2017-01-01
    ##  2 CentralPark_NY USW00094728 2017-01-02    53   5     2.8 2017-01-01
    ##  3 CentralPark_NY USW00094728 2017-01-03   147   6.1   3.9 2017-01-01
    ##  4 CentralPark_NY USW00094728 2017-01-04     0  11.1   1.1 2017-01-01
    ##  5 CentralPark_NY USW00094728 2017-01-05     0   1.1  -2.7 2017-01-01
    ##  6 CentralPark_NY USW00094728 2017-01-06    13   0.6  -3.8 2017-01-01
    ##  7 CentralPark_NY USW00094728 2017-01-07    81  -3.2  -6.6 2017-01-01
    ##  8 CentralPark_NY USW00094728 2017-01-08     0  -3.8  -8.8 2017-01-01
    ##  9 CentralPark_NY USW00094728 2017-01-09     0  -4.9  -9.9 2017-01-01
    ## 10 CentralPark_NY USW00094728 2017-01-10     0   7.8  -6   2017-01-01
    ## # … with 1,085 more rows
…
``` r
weather_df %>%
  group_by(name, month) %>%
  summarize(n_obs = n())
```

    ## `summarise()` has grouped output by 'name'. You can override using the
    ## `.groups` argument.

    ## # A tibble: 36 × 3
    ## # Groups:   name [3]
    ##    name           month      n_obs
    ##    <chr>          <date>     <int>
    ##  1 CentralPark_NY 2017-01-01    31
    ##  2 CentralPark_NY 2017-02-01    28
    ##  3 CentralPark_NY 2017-03-01    31
    ##  4 CentralPark_NY 2017-04-01    30
    ##  5 CentralPark_NY 2017-05-01    31
    ##  6 CentralPark_NY 2017-06-01    30
    ##  7 CentralPark_NY 2017-07-01    31
    ##  8 CentralPark_NY 2017-08-01    31
    ##  9 CentralPark_NY 2017-09-01    30
    ## 10 CentralPark_NY 2017-10-01    31
    ## # … with 26 more rows

we can use ‘count()’

``` r
weather_df %>%
  count(name, month, name = "n_obs")
```

    ## # A tibble: 36 × 3
    ##    name           month      n_obs
    ##    <chr>          <date>     <int>
    ##  1 CentralPark_NY 2017-01-01    31
    ##  2 CentralPark_NY 2017-02-01    28
    ##  3 CentralPark_NY 2017-03-01    31
    ##  4 CentralPark_NY 2017-04-01    30
    ##  5 CentralPark_NY 2017-05-01    31
    ##  6 CentralPark_NY 2017-06-01    30
    ##  7 CentralPark_NY 2017-07-01    31
    ##  8 CentralPark_NY 2017-08-01    31
    ##  9 CentralPark_NY 2017-09-01    30
    ## 10 CentralPark_NY 2017-10-01    31
    ## # … with 26 more rows
…
## A digression on 2x2 table

``` r
weather_df %>%
  filter(name != "Wakiki_HA") %>%
  mutate(
    cold = case_when(
      tmax < 5 ~ "cold",
      tmax >= 5 ~ "not_cold",
      TRUE   ~ ""
    )
  ) 
```

    ## # A tibble: 1,095 × 8
    ##    name           id          date        prcp  tmax  tmin month      cold    
    ##    <chr>          <chr>       <date>     <dbl> <dbl> <dbl> <date>     <chr>   
    ##  1 CentralPark_NY USW00094728 2017-01-01     0   8.9   4.4 2017-01-01 not_cold
    ##  2 CentralPark_NY USW00094728 2017-01-02    53   5     2.8 2017-01-01 not_cold
    ##  3 CentralPark_NY USW00094728 2017-01-03   147   6.1   3.9 2017-01-01 not_cold
    ##  4 CentralPark_NY USW00094728 2017-01-04     0  11.1   1.1 2017-01-01 not_cold
    ##  5 CentralPark_NY USW00094728 2017-01-05     0   1.1  -2.7 2017-01-01 cold    
    ##  6 CentralPark_NY USW00094728 2017-01-06    13   0.6  -3.8 2017-01-01 cold    
    ##  7 CentralPark_NY USW00094728 2017-01-07    81  -3.2  -6.6 2017-01-01 cold    
    ##  8 CentralPark_NY USW00094728 2017-01-08     0  -3.8  -8.8 2017-01-01 cold    
    ##  9 CentralPark_NY USW00094728 2017-01-09     0  -4.9  -9.9 2017-01-01 cold    
    ## 10 CentralPark_NY USW00094728 2017-01-10     0   7.8  -6   2017-01-01 not_cold
    ## # … with 1,085 more rows
…
``` r
weather_df %>%
  group_by(name, month) %>%
  summarize(
    mean_tmax = mean(tmax, na.rm = TRUE),
    mean_prcp = mean(prcp, na.rm = TRUE),
    median_tmin = median(tmin, na.rm = TRUE)
  )
```

    ## `summarise()` has grouped output by 'name'. You can override using the
    ## `.groups` argument.

    ## # A tibble: 36 × 5
    ## # Groups:   name [3]
    ##    name           month      mean_tmax mean_prcp median_tmin
    ##    <chr>          <date>         <dbl>     <dbl>       <dbl>
    ##  1 CentralPark_NY 2017-01-01      5.98      39.5         1.7
    ##  2 CentralPark_NY 2017-02-01      9.28      22.5         1.4
    ##  3 CentralPark_NY 2017-03-01      8.22      43.0         1.1
    ##  4 CentralPark_NY 2017-04-01     18.3       32.5         8.9
    ##  5 CentralPark_NY 2017-05-01     20.1       52.3        11.7
    ##  6 CentralPark_NY 2017-06-01     26.3       40.4        18.9
    ##  7 CentralPark_NY 2017-07-01     28.7       34.3        21.1
    ##  8 CentralPark_NY 2017-08-01     27.2       27.4        20  
    ##  9 CentralPark_NY 2017-09-01     25.4       17.0        18.4
    ## 10 CentralPark_NY 2017-10-01     21.8       34.3        13.9
    ## # … with 26 more rows
…
<img src="visual+EDA_files/figure-gfm/unnamed-chunk-15-1.png" width="90%" />

Suppose you want to summarize many colums.

``` r
weather_df %>%
  group_by(name, month) %>%
  summarize(across(prcp:tmin, mean))
```

    ## `summarise()` has grouped output by 'name'. You can override using the
    ## `.groups` argument.

    ## # A tibble: 36 × 5
    ## # Groups:   name [3]
    ##    name           month       prcp  tmax   tmin
    ##    <chr>          <date>     <dbl> <dbl>  <dbl>
    ##  1 CentralPark_NY 2017-01-01  39.5  5.98  0.748
    ##  2 CentralPark_NY 2017-02-01  22.5  9.28  1.45 
    ##  3 CentralPark_NY 2017-03-01  43.0  8.22 -0.177
    ##  4 CentralPark_NY 2017-04-01  32.5 18.3   9.66 
    ##  5 CentralPark_NY 2017-05-01  52.3 20.1  12.2  
    ##  6 CentralPark_NY 2017-06-01  40.4 26.3  18.2  
    ##  7 CentralPark_NY 2017-07-01  34.3 28.7  21.0  
    ##  8 CentralPark_NY 2017-08-01  27.4 27.2  19.5  
    ##  9 CentralPark_NY 2017-09-01  17.0 25.4  17.4  
    ## 10 CentralPark_NY 2017-10-01  34.3 21.8  13.9  
    ## # … with 26 more rows
…
## ‘group_by’ and ‘mutate’

``` r
weather_df %>%
  group_by(name) %>%
  mutate(
    mean_tmax = mean(tmax, na.rm = TRUE),
    centered_tmax = tmax - mean_tmax
  )
```

    ## # A tibble: 1,095 × 9
    ## # Groups:   name [3]
    ##    name           id     date        prcp  tmax  tmin month      mean_…¹ cente…²
    ##    <chr>          <chr>  <date>     <dbl> <dbl> <dbl> <date>       <dbl>   <dbl>
    ##  1 CentralPark_NY USW00… 2017-01-01     0   8.9   4.4 2017-01-01    17.4   -8.47
    ##  2 CentralPark_NY USW00… 2017-01-02    53   5     2.8 2017-01-01    17.4  -12.4 
    ##  3 CentralPark_NY USW00… 2017-01-03   147   6.1   3.9 2017-01-01    17.4  -11.3 
    ##  4 CentralPark_NY USW00… 2017-01-04     0  11.1   1.1 2017-01-01    17.4   -6.27
    ##  5 CentralPark_NY USW00… 2017-01-05     0   1.1  -2.7 2017-01-01    17.4  -16.3 
    ##  6 CentralPark_NY USW00… 2017-01-06    13   0.6  -3.8 2017-01-01    17.4  -16.8 
    ##  7 CentralPark_NY USW00… 2017-01-07    81  -3.2  -6.6 2017-01-01    17.4  -20.6 
    ##  8 CentralPark_NY USW00… 2017-01-08     0  -3.8  -8.8 2017-01-01    17.4  -21.2 
    ##  9 CentralPark_NY USW00… 2017-01-09     0  -4.9  -9.9 2017-01-01    17.4  -22.3 
    ## 10 CentralPark_NY USW00… 2017-01-10     0   7.8  -6   2017-01-01    17.4   -9.57
    ## # … with 1,085 more rows, and abbreviated variable names ¹​mean_tmax,
    ## #   ²​centered_tmax
…
<img src="visual+EDA_files/figure-gfm/unnamed-chunk-19-1.png" width="90%" />

what about window functions

ranking ..

``` r
weather_df %>%
  group_by(name, month) %>%
  mutate(temp_rank = min_rank(tmax)) %>%
  filter(temp_rank == 1)
```

    ## # A tibble: 42 × 8
    ## # Groups:   name, month [36]
    ##    name           id          date        prcp  tmax  tmin month      temp_rank
    ##    <chr>          <chr>       <date>     <dbl> <dbl> <dbl> <date>         <int>
    ##  1 CentralPark_NY USW00094728 2017-01-09     0  -4.9  -9.9 2017-01-01         1
    ##  2 CentralPark_NY USW00094728 2017-02-10     0   0    -7.1 2017-02-01         1
    ##  3 CentralPark_NY USW00094728 2017-03-15     0  -3.2  -6.6 2017-03-01         1
    ##  4 CentralPark_NY USW00094728 2017-04-01     0   8.9   2.8 2017-04-01         1
    ##  5 CentralPark_NY USW00094728 2017-05-13   409  11.7   7.2 2017-05-01         1
    ##  6 CentralPark_NY USW00094728 2017-06-06    15  14.4  11.1 2017-06-01         1
    ##  7 CentralPark_NY USW00094728 2017-07-25     0  21.7  16.7 2017-07-01         1
    ##  8 CentralPark_NY USW00094728 2017-08-29    74  20    16.1 2017-08-01         1
    ##  9 CentralPark_NY USW00094728 2017-09-30     0  18.9  12.2 2017-09-01         1
    ## 10 CentralPark_NY USW00094728 2017-10-31     0  13.9   7.2 2017-10-01         1
    ## # … with 32 more rows

``` r
weather_df %>%
  group_by(name, month) %>%
  mutate(temp_rank = min_rank(tmax)) %>%
  filter(temp_rank == min_rank(tmax))
```

    ## # A tibble: 1,092 × 8
    ## # Groups:   name, month [36]
    ##    name           id          date        prcp  tmax  tmin month      temp_rank
    ##    <chr>          <chr>       <date>     <dbl> <dbl> <dbl> <date>         <int>
    ##  1 CentralPark_NY USW00094728 2017-01-01     0   8.9   4.4 2017-01-01        22
    ##  2 CentralPark_NY USW00094728 2017-01-02    53   5     2.8 2017-01-01        12
    ##  3 CentralPark_NY USW00094728 2017-01-03   147   6.1   3.9 2017-01-01        15
    ##  4 CentralPark_NY USW00094728 2017-01-04     0  11.1   1.1 2017-01-01        27
    ##  5 CentralPark_NY USW00094728 2017-01-05     0   1.1  -2.7 2017-01-01         5
    ##  6 CentralPark_NY USW00094728 2017-01-06    13   0.6  -3.8 2017-01-01         4
    ##  7 CentralPark_NY USW00094728 2017-01-07    81  -3.2  -6.6 2017-01-01         3
    ##  8 CentralPark_NY USW00094728 2017-01-08     0  -3.8  -8.8 2017-01-01         2
    ##  9 CentralPark_NY USW00094728 2017-01-09     0  -4.9  -9.9 2017-01-01         1
    ## 10 CentralPark_NY USW00094728 2017-01-10     0   7.8  -6   2017-01-01        21
    ## # … with 1,082 more rows

lag

``` r
weather_df %>%
  group_by(name) %>%
  mutate(lag_temp = lag(tmax, 5))
```

    ## # A tibble: 1,095 × 8
    ## # Groups:   name [3]
    ##    name           id          date        prcp  tmax  tmin month      lag_temp
    ##    <chr>          <chr>       <date>     <dbl> <dbl> <dbl> <date>        <dbl>
    ##  1 CentralPark_NY USW00094728 2017-01-01     0   8.9   4.4 2017-01-01     NA  
    ##  2 CentralPark_NY USW00094728 2017-01-02    53   5     2.8 2017-01-01     NA  
    ##  3 CentralPark_NY USW00094728 2017-01-03   147   6.1   3.9 2017-01-01     NA  
    ##  4 CentralPark_NY USW00094728 2017-01-04     0  11.1   1.1 2017-01-01     NA  
    ##  5 CentralPark_NY USW00094728 2017-01-05     0   1.1  -2.7 2017-01-01     NA  
    ##  6 CentralPark_NY USW00094728 2017-01-06    13   0.6  -3.8 2017-01-01      8.9
    ##  7 CentralPark_NY USW00094728 2017-01-07    81  -3.2  -6.6 2017-01-01      5  
    ##  8 CentralPark_NY USW00094728 2017-01-08     0  -3.8  -8.8 2017-01-01      6.1
    ##  9 CentralPark_NY USW00094728 2017-01-09     0  -4.9  -9.9 2017-01-01     11.1
    ## 10 CentralPark_NY USW00094728 2017-01-10     0   7.8  -6   2017-01-01      1.1
    ## # … with 1,085 more rows

``` r
weather_df %>%
  group_by(name) %>%
  mutate(temp_change = tmax - lag(tmax))
```

    ## # A tibble: 1,095 × 8
    ## # Groups:   name [3]
    ##    name           id          date        prcp  tmax  tmin month      temp_cha…¹
    ##    <chr>          <chr>       <date>     <dbl> <dbl> <dbl> <date>          <dbl>
    ##  1 CentralPark_NY USW00094728 2017-01-01     0   8.9   4.4 2017-01-01     NA    
    ##  2 CentralPark_NY USW00094728 2017-01-02    53   5     2.8 2017-01-01     -3.9  
    ##  3 CentralPark_NY USW00094728 2017-01-03   147   6.1   3.9 2017-01-01      1.1  
    ##  4 CentralPark_NY USW00094728 2017-01-04     0  11.1   1.1 2017-01-01      5    
    ##  5 CentralPark_NY USW00094728 2017-01-05     0   1.1  -2.7 2017-01-01    -10    
    ##  6 CentralPark_NY USW00094728 2017-01-06    13   0.6  -3.8 2017-01-01     -0.5  
    ##  7 CentralPark_NY USW00094728 2017-01-07    81  -3.2  -6.6 2017-01-01     -3.8  
    ##  8 CentralPark_NY USW00094728 2017-01-08     0  -3.8  -8.8 2017-01-01     -0.600
    ##  9 CentralPark_NY USW00094728 2017-01-09     0  -4.9  -9.9 2017-01-01     -1.10 
    ## 10 CentralPark_NY USW00094728 2017-01-10     0   7.8  -6   2017-01-01     12.7  
    ## # … with 1,085 more rows, and abbreviated variable name ¹​temp_change

``` r
weather_df %>%
  group_by(name) %>%
  mutate(temp_change = tmax - lag(tmax))
```

    ## # A tibble: 1,095 × 8
    ## # Groups:   name [3]
    ##    name           id          date        prcp  tmax  tmin month      temp_cha…¹
    ##    <chr>          <chr>       <date>     <dbl> <dbl> <dbl> <date>          <dbl>
    ##  1 CentralPark_NY USW00094728 2017-01-01     0   8.9   4.4 2017-01-01     NA    
    ##  2 CentralPark_NY USW00094728 2017-01-02    53   5     2.8 2017-01-01     -3.9  
    ##  3 CentralPark_NY USW00094728 2017-01-03   147   6.1   3.9 2017-01-01      1.1  
    ##  4 CentralPark_NY USW00094728 2017-01-04     0  11.1   1.1 2017-01-01      5    
    ##  5 CentralPark_NY USW00094728 2017-01-05     0   1.1  -2.7 2017-01-01    -10    
    ##  6 CentralPark_NY USW00094728 2017-01-06    13   0.6  -3.8 2017-01-01     -0.5  
    ##  7 CentralPark_NY USW00094728 2017-01-07    81  -3.2  -6.6 2017-01-01     -3.8  
    ##  8 CentralPark_NY USW00094728 2017-01-08     0  -3.8  -8.8 2017-01-01     -0.600
    ##  9 CentralPark_NY USW00094728 2017-01-09     0  -4.9  -9.9 2017-01-01     -1.10 
    ## 10 CentralPark_NY USW00094728 2017-01-10     0   7.8  -6   2017-01-01     12.7  
    ## # … with 1,085 more rows, and abbreviated variable name ¹​temp_change

``` r
weather_df %>%
  group_by(name) %>%
  mutate(lag_temp = lag(tmax, 5))
```

    ## # A tibble: 1,095 × 8
    ## # Groups:   name [3]
    ##    name           id          date        prcp  tmax  tmin month      lag_temp
    ##    <chr>          <chr>       <date>     <dbl> <dbl> <dbl> <date>        <dbl>
    ##  1 CentralPark_NY USW00094728 2017-01-01     0   8.9   4.4 2017-01-01     NA  
    ##  2 CentralPark_NY USW00094728 2017-01-02    53   5     2.8 2017-01-01     NA  
    ##  3 CentralPark_NY USW00094728 2017-01-03   147   6.1   3.9 2017-01-01     NA  
    ##  4 CentralPark_NY USW00094728 2017-01-04     0  11.1   1.1 2017-01-01     NA  
    ##  5 CentralPark_NY USW00094728 2017-01-05     0   1.1  -2.7 2017-01-01     NA  
    ##  6 CentralPark_NY USW00094728 2017-01-06    13   0.6  -3.8 2017-01-01      8.9
    ##  7 CentralPark_NY USW00094728 2017-01-07    81  -3.2  -6.6 2017-01-01      5  
    ##  8 CentralPark_NY USW00094728 2017-01-08     0  -3.8  -8.8 2017-01-01      6.1
    ##  9 CentralPark_NY USW00094728 2017-01-09     0  -4.9  -9.9 2017-01-01     11.1
    ## 10 CentralPark_NY USW00094728 2017-01-10     0   7.8  -6   2017-01-01      1.1
    ## # … with 1,085 more rows
…
